﻿[
	{
		"_id": "co-10",
		"_parentId": "course",
		"_type": "page",
		"_classes": "",
		"height":"570",
		"title": "Introduction",
		"displayTitle": "Introduction",
		"pageBody": "L’Audience Network peut améliorer les résultats de vos campagnes à la performance en élargissant votre portée au-delà de Facebook.",
		"body": "L’Audience Network peut améliorer les résultats de vos campagnes à la performance en élargissant votre portée au-delà de Facebook.",
        "_graphic": {
			"src": "course/en/images/co_1.jpg",
			"alt": "Introduction"
		},
		"linkText": "Afficher",
		"durationLabel": "Durée :",
		"duration": "3 min",
		"_pageLevelProgress": {
			"_isEnabled": true
		}
	},
    {
		"_id": "co-20",
		"_parentId": "course",
		"_type": "page",
		"_classes": "",
		"height":"570",
		"title": "Avantages",
		"displayTitle": "Avantages",
		"pageBody": "",
		"body": "Nous allons ici explorer les avantages liés à l’élargissement de vos campagnes à la performance au-delà de Facebook grâce à l’Audience Network.",
		"_graphic": {
			"src": "course/en/images/co_2.jpg",
			"alt": "Avantages"
		},
		"linkText": "Afficher",
		"durationLabel": "Durée :",
		"duration": "4 min",
		"_pageLevelProgress": {
			"_isEnabled": true
        }
	},
    {
		"_id": "co-30",
		"_parentId": "course",
		"_type": "page",
		"_classes": "",
		"height":"570",
		"title": "Objectifs publicitaires et placements",
		"displayTitle": "Objectifs publicitaires et placements",
		"pageBody": " ",
		"body": "Dans cette section, nous découvrirons quels objectifs des campagnes à la performance et quels placements sont disponibles dans l’Audience Network.",
		"_graphic": {
			"src": "course/en/images/co_3.jpg",
			"alt": "Objectifs publicitaires et placements"
		},
		"linkText": "Afficher",
		"durationLabel": "Durée :",
		"duration": "5 min",
		"_pageLevelProgress": {
			"_isEnabled": true
        }
	},
    {
		"_id": "co-40",
		"_parentId": "course",
		"_type": "page",
		"_classes": "",
		"height":"570",
		"title": "Mesures et tests",
		"displayTitle": "Mesures et tests",
		"pageBody": " ",
		"body": "Lancez un test par répartition pour découvrir dans quelle mesure l’utilisation de l’Audience Network pour étendre votre campagne à la performance au-delà de Facebook peut avoir un impact sur vos résultats.",
		"_graphic": {
			"src": "course/en/images/co_4.jpg",
			"alt": "Mesures et tests"
		},
		"linkText": "Afficher",
		"durationLabel": "Durée :",
		"duration": "5 min",
		"_pageLevelProgress": {
			"_isEnabled": true
        }
	},
    {
		"_id": "co-50",
		"_parentId": "course",
		"_type": "page",
		"_classes": "",
		"height":"570",
        "title": "Success Stories",
		"displayTitle": "Success Stories",
		"pageBody": " ",
		"body": "Découvrez comment d’autres annonceurs ont utilisé avec succès l’Audience Network pour booster leurs campagnes à la performance.",
		"_graphic": {
			"src": "course/en/images/co_5.jpg",
			"alt": "Success Stories"
		},
		"linkText": "Afficher",
		"durationLabel": "Durée :",
		"duration": "4 min",
		"_pageLevelProgress": {
			"_isEnabled": true
        }
	},
    {
		"_id": "co-60",
		"_parentId": "course",
		"_type": "page",
		"_classes": "",
		"height":"570",
        "title": "Résumé et contrôle des connaissances",
		"displayTitle": "Résumé et contrôle des connaissances",
		"pageBody": " ",
		"body": "Nous avons passé beaucoup de choses en revue dans ce cours, faisons donc un récapitulatif de ce que vous avez appris.",
		"_graphic": {
			"src": "course/en/images/co_6.jpg",
			"alt": "Résumé et contrôle des connaissances"
		},
		"linkText": "Afficher",
		"durationLabel": "Durée :",
		"duration": "4 min",
		"_pageLevelProgress": {
			"_isEnabled": true
        }
	}
]
